<svg width="25" height="24" viewBox="0 0 25 24" fill="none" xmlns="http://www.w3.org/2000/svg">
<path d="M24.1167 9.7497C24.2697 10.553 24.353 11.3929 24.353 12.2694C24.353 19.1252 19.6707 24 12.5987 24C10.9904 24.0005 9.39785 23.6904 7.91191 23.0875C6.42597 22.4846 5.07583 21.6007 3.93861 20.4864C2.8014 19.372 1.89941 18.0489 1.28418 16.5928C0.668947 15.1366 0.352538 13.576 0.353028 12C0.352538 10.424 0.668947 8.86335 1.28418 7.40723C1.89941 5.95111 2.8014 4.62805 3.93861 3.51365C5.07583 2.39925 6.42597 1.51535 7.91191 0.912467C9.39785 0.309581 10.9904 -0.000479954 12.5987 5.57642e-07C15.9052 5.57642e-07 18.6681 1.1922 20.7878 3.128L17.3358 6.51077V6.50223C16.0507 5.30272 14.4199 4.68712 12.5987 4.68712C8.55828 4.68712 5.27419 8.0321 5.27419 11.9927C5.27419 15.9521 8.55828 19.3043 12.5987 19.3043C16.2647 19.3043 18.7601 17.2503 19.2726 14.4295H12.5987V9.7497H24.1179H24.1167Z" fill="#545454"/>
</svg>
