<svg width="60" height="66" viewBox="0 0 60 66" fill="none" xmlns="http://www.w3.org/2000/svg">
<path d="M21.696 0H59.328L57.696 12.48H50.784L46.944 42.336C46.368 46.944 45.536 50.784 44.448 53.856C43.424 56.864 42.08 59.264 40.416 61.056C38.752 62.848 36.736 64.096 34.368 64.8C32.064 65.568 29.344 65.952 26.208 65.952C23.776 65.952 21.408 65.728 19.104 65.28C16.8 64.896 14.624 64.32 12.576 63.552L14.208 51.264C16.192 52.032 18.112 52.608 19.968 52.992C21.824 53.312 23.584 53.472 25.248 53.472C26.848 53.472 28.128 53.312 29.088 52.992C30.048 52.608 30.816 52 31.392 51.168C31.968 50.272 32.416 49.12 32.736 47.712C33.056 46.304 33.344 44.512 33.6 42.336L37.44 12.48H20.064C19.04 12.48 18.08 12.512 17.184 12.576C16.352 12.64 15.648 12.832 15.072 13.152C14.496 13.408 14.048 13.824 13.728 14.4C13.408 14.976 13.248 15.776 13.248 16.8C13.248 18.272 13.792 20.064 14.88 22.176C16.032 24.224 17.472 26.112 19.2 27.84H4.512C3.232 26.368 2.144 24.512 1.248 22.272C0.416 19.968 0 17.536 0 14.976C0 12.032 0.512 9.6 1.536 7.68C2.56 5.76 4 4.224 5.856 3.072C7.776 1.92 10.048 1.12 12.672 0.672003C15.36 0.224001 18.368 0 21.696 0Z" fill="#F80000"/>
</svg>
